{
  "packages": {
    "streams": {},
    "bower": {},
    "user-status": {},
    "bootstrap-3": {}
  },
  "bower": {
    "vex": {
      "version": "2.2.1",
      "additionalFiles": [
        "js/vex.combined.min.js",
        "css/vex.css",
        "css/vex-theme-default.css",
        "css/vex-theme-wireframe.css"
      ]
    },
    "intro.js": "0.9.0"
  }
}
